…
``` r
birthweight %>% 
  mutate(babysex = as.factor(recode(babysex, `1` = 0, `2` = 1)), # 0 represent male, 1 represents female
         frace = as.factor(frace), 
         mrace = as.factor(mrace),
         malform = as.factor(malform))
```

    ## # A tibble: 4,342 x 20
    ##    babysex bhead blength   bwt delwt fincome frace gaweeks malform menarche
    ##    <fct>   <int>   <int> <int> <int>   <int> <fct>   <dbl> <fct>      <int>
    ##  1 1          34      51  3629   177      35 1        39.9 0             13
    ##  2 0          34      48  3062   156      65 2        25.9 0             14
    ##  3 1          36      50  3345   148      85 1        39.9 0             12
    ##  4 0          34      52  3062   157      55 1        40   0             14
    ##  5 1          34      52  3374   156       5 1        41.6 0             13
    ##  6 0          33      52  3374   129      55 1        40.7 0             12
    ##  7 1          33      46  2523   126      96 2        40.3 0             14
    ##  8 1          33      49  2778   140       5 1        37.4 0             12
    ##  9 0          36      52  3515   146      85 1        40.3 0             11
    ## 10 0          33      50  3459   169      75 2        40.7 0             12
    ## # ... with 4,332 more rows, and 10 more variables: mheight <int>,
    ## #   momage <int>, mrace <fct>, parity <int>, pnumlbw <int>, pnumsga <int>,
    ## #   ppbmi <dbl>, ppwt <int>, smoken <dbl>, wtgain <int>
…
